{
  "type": "foodpouches:pouch_upgrading",
  "food": 0,
  "ingredients": [
    {
      "item": "minecraft:comparator"
    },
    {
      "item": "foodpouches:small_food_pouch"
    }
  ],
  "result": {
    "item": "foodpouches:small_automatic_food_pouch"
  }
}